{
  "items": [
    {
      "id": 219,
      "title": "МАИ"
    },
    {
      "id": 2,
      "title": "МГУ"
    },
    {
      "id": 86,
      "title": "АПИ при ИГиП РАН"
    },
    {
      "id": 87,
      "title": "ГУМФ (бывш. АБИК)"
    },
    {
      "id": 88,
      "title": "АГПС МЧС России"
    },
    {
      "id": 89,
      "title": "АГЗ МЧС России"
    },
    {
      "id": 90,
      "title": "АМИ"
    },
    {
      "id": 92,
      "title": "РАНХиГС при Президенте РФ (бывш. АНХ при Правительстве РФ)"
    },
    {
      "id": 93,
      "title": "МИГУП (бывш. АПУ)"
    },
    {
      "id": 94,
      "title": "АТиСО"
    },
    {
      "id": 95,
      "title": "АУ МВД РФ"
    },
    {
      "id": 96,
      "title": "АФПС РФ"
    },
    {
      "id": 97,
      "title": "АФСБ РФ (бывш. ВШ КГБ СССР им. Ф. Э. Дзержинского)"
    },
    {
      "id": 98,
      "title": "АХИ им. В. С. Попова"
    },
    {
      "id": 99,
      "title": "АЭИ"
    },
    {
      "id": 100,
      "title": "АЭиУ"
    },
    {
      "id": 101,
      "title": "АРБИ"
    },
    {
      "id": 102,
      "title": "ВА РВСН им. Петра Великого (бывш. ВА им. Ф. Э. Дзержинского)"
    },
    {
      "id": 103,
      "title": "ВИУ МО РФ"
    },
    {
      "id": 106,
      "title": "ВУМО РФ (бывш. ВПА им. Ленина)"
    },
    {
      "id": 107,
      "title": "ВУРХБЗ"
    },
    {
      "id": 108,
      "title": "ИСВ (бывш. ВУ)"
    },
    {
      "id": 109,
      "title": "ВАВТ"
    },
    {
      "id": 110,
      "title": "ВГНА"
    },
    {
      "id": 111,
      "title": "ВГИК"
    },
    {
      "id": 113,
      "title": "ВКШ МЭРТ"
    },
    {
      "id": 114,
      "title": "ВТШ С. Мелконяна"
    },
    {
      "id": 115,
      "title": "ВШ ГМУ"
    },
    {
      "id": 116,
      "title": "ВШПП"
    },
    {
      "id": 118,
      "title": "ВШСО"
    },
    {
      "id": 119,
      "title": "ВТУ им. М. С. Щепкина"
    },
    {
      "id": 120,
      "title": "ТИ им. Бориса Щукина (бывш. ВТУ им. Бориса Щукина)"
    },
    {
      "id": 121,
      "title": "ВИУ"
    },
    {
      "id": 122,
      "title": "ГАСИС"
    },
    {
      "id": 123,
      "title": "ГАСК"
    },
    {
      "id": 124,
      "title": "ГКА им. Маймонида"
    },
    {
      "id": 125,
      "title": "Гос. ИРЯ им. А. С. Пушкина"
    },
    {
      "id": 126,
      "title": "ГМПИ им. М. М. Ипполитова-Иванова"
    },
    {
      "id": 127,
      "title": "РГСАИ (бывш. ГСИИ)"
    },
    {
      "id": 128,
      "title": "НИУ ВШЭ (ГУ-ВШЭ)"
    },
    {
      "id": 129,
      "title": "ГАУГН (бывш. ГУГН, РЦГО)"
    },
    {
      "id": 130,
      "title": "ГУЗ"
    },
    {
      "id": 131,
      "title": "ГУУ"
    },
    {
      "id": 133,
      "title": "ГЭИ"
    },
    {
      "id": 134,
      "title": "ГЭИТИ"
    },
    {
      "id": 135,
      "title": "Гуманитарный институт"
    },
    {
      "id": 136,
      "title": "ГИТР"
    },
    {
      "id": 137,
      "title": "МГПИ"
    },
    {
      "id": 138,
      "title": "Дипломатическая академия МИД РФ"
    },
    {
      "id": 141,
      "title": "Юринфор"
    },
    {
      "id": 143,
      "title": "ИБП"
    },
    {
      "id": 144,
      "title": "ИБПМ"
    },
    {
      "id": 147,
      "title": "РГИС (ВСК)"
    },
    {
      "id": 148,
      "title": "ИГУ МГИМО МИД РФ"
    },
    {
      "id": 149,
      "title": "ИГА"
    },
    {
      "id": 151,
      "title": "ИГУМО и ИТ"
    },
    {
      "id": 152,
      "title": "ИДК"
    },
    {
      "id": 154,
      "title": "Институт естественных наук и экологии (ИНЕСНЭК)"
    },
    {
      "id": 155,
      "title": "ИЖЛТ"
    },
    {
      "id": 157,
      "title": "ИИР"
    },
    {
      "id": 159,
      "title": "ИКиП"
    },
    {
      "id": 160,
      "title": "ИКСИ АФСБ РФ"
    },
    {
      "id": 161,
      "title": "ИМБО"
    },
    {
      "id": 162,
      "title": "ИМПЭ им. А. С. Грибоедова"
    },
    {
      "id": 163,
      "title": "ИМТП"
    },
    {
      "id": 164,
      "title": "ИМЭС"
    },
    {
      "id": 165,
      "title": "ИМПиПП"
    },
    {
      "id": 166,
      "title": "ИМЭ"
    },
    {
      "id": 168,
      "title": "ИМЭИ (мировой экономики и информатизации)"
    },
    {
      "id": 169,
      "title": "ИПВ"
    },
    {
      "id": 170,
      "title": "ИПО"
    },
    {
      "id": 171,
      "title": "ИПП"
    },
    {
      "id": 173,
      "title": "ИРЭСПиП"
    },
    {
      "id": 174,
      "title": "ИСБ"
    },
    {
      "id": 175,
      "title": "ИСИ"
    },
    {
      "id": 176,
      "title": "ИСБТиСУ"
    },
    {
      "id": 177,
      "title": "ИСН"
    },
    {
      "id": 178,
      "title": "АССО (бывш. ИССО)"
    },
    {
      "id": 179,
      "title": "ИНЭКБИ"
    },
    {
      "id": 180,
      "title": "ИЭиК"
    },
    {
      "id": 181,
      "title": "ИЭП"
    },
    {
      "id": 182,
      "title": "ИНЭП"
    },
    {
      "id": 184,
      "title": "ИЭФП"
    },
    {
      "id": 185,
      "title": "ИЭПиУР"
    },
    {
      "id": 186,
      "title": "ИЯиК им. Л. Толстого"
    },
    {
      "id": 188,
      "title": "ЛИ им. Горького"
    },
    {
      "id": 189,
      "title": "МАТИ - РГТУ им. К. Э. Циолковского"
    },
    {
      "id": 190,
      "title": "МВШ"
    },
    {
      "id": 191,
      "title": "МИГМТ"
    },
    {
      "id": 192,
      "title": "МИМ Линк"
    },
    {
      "id": 193,
      "title": "МИЭП"
    },
    {
      "id": 194,
      "title": "Академия МНЭПУ"
    },
    {
      "id": 195,
      "title": "МИЭПП при МНЭПУ"
    },
    {
      "id": 196,
      "title": "МСИ им. Г. Р. Державина"
    },
    {
      "id": 198,
      "title": "ММУ (МУМ)"
    },
    {
      "id": 199,
      "title": "Международный юридический институт"
    },
    {
      "id": 200,
      "title": "НОУ МТИ"
    },
    {
      "id": 202,
      "title": "МАП (международная)"
    },
    {
      "id": 203,
      "title": "МГИИТ им. Ю. А. Сенкевича (бывш. МАТГР)"
    },
    {
      "id": 204,
      "title": "МАЭП"
    },
    {
      "id": 205,
      "title": "МГАВМиБ им. К. И. Скрябина (бывш. МВА)"
    },
    {
      "id": 206,
      "title": "МГАВТ – филиал ГУМРФ им. адмирала С. О. Макарова"
    },
    {
      "id": 207,
      "title": "МГУПИ"
    },
    {
      "id": 208,
      "title": "МИТХТ"
    },
    {
      "id": 209,
      "title": "МГАФК (Мосспортакадемия)"
    },
    {
      "id": 210,
      "title": "МГАХ"
    },
    {
      "id": 211,
      "title": "МГК им. П. И. Чайковского"
    },
    {
      "id": 212,
      "title": "МГУТУ им. К. Г. Разумовского (ПКУ) (бывш. МГТА, ВЗИПП)"
    },
    {
      "id": 213,
      "title": "МГЮА (Университет им. О. Е. Кутафина)"
    },
    {
      "id": 215,
      "title": "Первый МГМУ им. И. М. Сеченова (Сеченовский Университет)"
    },
    {
      "id": 216,
      "title": "Мирбис"
    },
    {
      "id": 217,
      "title": "РГАУ — МСХА им. К. А. Тимирязева"
    },
    {
      "id": 218,
      "title": "МФЮА"
    },
    {
      "id": 220,
      "title": "МАРХИ"
    },
    {
      "id": 221,
      "title": "МБИ"
    },
    {
      "id": 222,
      "title": "МВВКУ (бывш. МВИ, МВОКУ им. Верховного Совета РСФСР)"
    },
    {
      "id": 225,
      "title": "МГИЮ"
    },
    {
      "id": 226,
      "title": "МГПУ"
    },
    {
      "id": 227,
      "title": "МГППУ"
    },
    {
      "id": 228,
      "title": "МАДИ"
    },
    {
      "id": 229,
      "title": "МГАУ им. В. П. Горячкина"
    },
    {
      "id": 230,
      "title": "МГАХИ им. В. И. Сурикова"
    },
    {
      "id": 231,
      "title": "МГВМИ"
    },
    {
      "id": 232,
      "title": "РГГРУ (МГРИ) им. Орджоникидзе"
    },
    {
      "id": 233,
      "title": "МГГУ"
    },
    {
      "id": 234,
      "title": "МГИУ"
    },
    {
      "id": 236,
      "title": "МГИМО МИД России"
    },
    {
      "id": 237,
      "title": "МГИМ им. А. Г. Шнитке"
    },
    {
      "id": 238,
      "title": "МИРЭА (до 2015)"
    },
    {
      "id": 239,
      "title": "НИТУ МИСиС"
    },
    {
      "id": 240,
      "title": "МИЭМ"
    },
    {
      "id": 241,
      "title": "МИЭТ"
    },
    {
      "id": 242,
      "title": "МГЛУ (бывш. МГПИИЯ им. Мориса Тореза)"
    },
    {
      "id": 243,
      "title": "МГМСУ им. А. И. Евдокимова"
    },
    {
      "id": 244,
      "title": "МГГУ (бывш. МГОПУ) им. М. А. Шолохова"
    },
    {
      "id": 245,
      "title": "МГОУ им. В. С. Черномырдина (ныне в сост. МАМИ)"
    },
    {
      "id": 247,
      "title": "НИУ МГСУ (МГСУ-МИСИ)"
    },
    {
      "id": 248,
      "title": "МГТУ им. А. Н. Косыгина (бывш. МГТА им. А. Н. Косыгина, МТИ)"
    },
    {
      "id": 249,
      "title": "МГТУ ГА"
    },
    {
      "id": 250,
      "title": "МГТУ им. Н. Э. Баумана"
    },
    {
      "id": 251,
      "title": "Университет машиностроения (МАМИ)"
    },
    {
      "id": 252,
      "title": "МГТУ «Станкин»"
    },
    {
      "id": 253,
      "title": "МИИГАиК"
    },
    {
      "id": 254,
      "title": "РГУ им. А. Н. Косыгина (бывш. МГУДТ)"
    },
    {
      "id": 255,
      "title": "МГУИЭ (бывш. МИХМ)"
    },
    {
      "id": 257,
      "title": "МГИК (бывш. МГУКИ)"
    },
    {
      "id": 258,
      "title": "МГУЛ"
    },
    {
      "id": 259,
      "title": "МГУП им. И. Федорова (бывш. МПИ)"
    },
    {
      "id": 260,
      "title": "МГУПП"
    },
    {
      "id": 261,
      "title": "МГУПБ"
    },
    {
      "id": 262,
      "title": "МГУП"
    },
    {
      "id": 263,
      "title": "РУТ (МИИТ) (бывш. МГУПС Императора Николая II)"
    },
    {
      "id": 264,
      "title": "РГУТиС (бывш. МГУС)"
    },
    {
      "id": 265,
      "title": "МЭСИ"
    },
    {
      "id": 266,
      "title": "МГХПА им. С. Г. Строганова"
    },
    {
      "id": 267,
      "title": "МГЭУ (бывш. МГЭИ)"
    },
    {
      "id": 268,
      "title": "МГИ им. Е. Р. Дашковой"
    },
    {
      "id": 269,
      "title": "НИЯУ МИФИ"
    },
    {
      "id": 270,
      "title": "МИБД"
    },
    {
      "id": 271,
      "title": "МИБУА"
    },
    {
      "id": 273,
      "title": "ИИЯ"
    },
    {
      "id": 274,
      "title": "МГАКХиС (ВЗИСИ)"
    },
    {
      "id": 276,
      "title": "МИМСР"
    },
    {
      "id": 277,
      "title": "МИМБ при ВАВТ МЭРТ РФ"
    },
    {
      "id": 278,
      "title": "МИП"
    },
    {
      "id": 279,
      "title": "МИПП"
    },
    {
      "id": 280,
      "title": "МИГКУ"
    },
    {
      "id": 281,
      "title": "МИУ (управления)"
    },
    {
      "id": 282,
      "title": "МУ им. С. Ю. Витте (бывш. МИЭМП)"
    },
    {
      "id": 283,
      "title": "МИЭПП"
    },
    {
      "id": 284,
      "title": "МКВИ филиал СПБГУКиТ"
    },
    {
      "id": 287,
      "title": "МНЮИ"
    },
    {
      "id": 288,
      "title": "МОСА (бывш. МОСУ)"
    },
    {
      "id": 289,
      "title": "МПГУ (бывш. МГПИ им. Ленина)"
    },
    {
      "id": 290,
      "title": "МПУ"
    },
    {
      "id": 291,
      "title": "МПСУ (бывш. МПСИ)"
    },
    {
      "id": 293,
      "title": "МТУСИ"
    },
    {
      "id": 294,
      "title": "МТИ (транспортный)"
    },
    {
      "id": 295,
      "title": "МосУ МВД РФ им. В. Я. Кикотя"
    },
    {
      "id": 296,
      "title": "МУ «Туро»"
    },
    {
      "id": 297,
      "title": "МФТИ (Физтех)"
    },
    {
      "id": 299,
      "title": "СПбИВЭСЭП в Москве"
    },
    {
      "id": 300,
      "title": "МФЭИ"
    },
    {
      "id": 301,
      "title": "МГТА (бывш. МЭЛИ)"
    },
    {
      "id": 302,
      "title": "МЭФИ"
    },
    {
      "id": 303,
      "title": "НОУ МЭИ"
    },
    {
      "id": 304,
      "title": "НИУ МЭИ"
    },
    {
      "id": 306,
      "title": "ЛГУ им. А. С. Пушкина в Москве"
    },
    {
      "id": 307,
      "title": "НИБ"
    },
    {
      "id": 309,
      "title": "Континент (Евро-Азия)"
    },
    {
      "id": 310,
      "title": "ПМЮИ"
    },
    {
      "id": 311,
      "title": "ИТТ (подмосковный филиал)"
    },
    {
      "id": 312,
      "title": "РААН (бывш. РАА)"
    },
    {
      "id": 314,
      "title": "РАЖВиЗ Ильи Глазунова"
    },
    {
      "id": 315,
      "title": "РАМиА"
    },
    {
      "id": 316,
      "title": "РАМ им. Гнесиных"
    },
    {
      "id": 317,
      "title": "РГУП (бывш. РАП)"
    },
    {
      "id": 318,
      "title": "РАП (предпринимательства)"
    },
    {
      "id": 319,
      "title": "ГИТИС"
    },
    {
      "id": 320,
      "title": "РГАТиЗ"
    },
    {
      "id": 321,
      "title": "РГУФКСМиТ (ГЦОЛИФК)"
    },
    {
      "id": 322,
      "title": "РМАНПО (бывш. РМАПО)"
    },
    {
      "id": 323,
      "title": "РМАТ (МФ)"
    },
    {
      "id": 324,
      "title": "ВГУЮ (РПА Минюста России)"
    },
    {
      "id": 325,
      "title": "РТА"
    },
    {
      "id": 326,
      "title": "РЭУ им. Г. В. Плеханова"
    },
    {
      "id": 328,
      "title": "РГГУ"
    },
    {
      "id": 329,
      "title": "РГАИС (бывш. РГИИС)"
    },
    {
      "id": 330,
      "title": "РНИМУ (бывш. РГМУ) им. Н. И. Пирогова"
    },
    {
      "id": 331,
      "title": "РОАТ МИИТ (бывш. РГОТУПС, ВЗИИТ)"
    },
    {
      "id": 332,
      "title": "РГТЭУ (бывш. ЗИСТ, МКИ, МКУ, МГУК)"
    },
    {
      "id": 333,
      "title": "РГУИТП"
    },
    {
      "id": 334,
      "title": "РГУ нефти и газа (НИУ) им. И. М. Губкина"
    },
    {
      "id": 335,
      "title": "РосЗИТЛП (бывш. ВЗИТЛП)"
    },
    {
      "id": 336,
      "title": "РосНОУ"
    },
    {
      "id": 337,
      "title": "РПУ (РПИ) св. Иоанна Богослова"
    },
    {
      "id": 338,
      "title": "РУДН"
    },
    {
      "id": 339,
      "title": "РХТУ им. Д. И. Менделеева"
    },
    {
      "id": 340,
      "title": "РИУ"
    },
    {
      "id": 341,
      "title": "УГМУ (бывш. РУИ)"
    },
    {
      "id": 342,
      "title": "СДИ"
    },
    {
      "id": 343,
      "title": "СГА"
    },
    {
      "id": 344,
      "title": "СФГА (НОУ СГИ)"
    },
    {
      "id": 345,
      "title": "Высшая школа «Среда обучения» (бывш. УНИК)"
    },
    {
      "id": 346,
      "title": "МАО (УНН - Натальи Нестеровой)"
    },
    {
      "id": 347,
      "title": "УРИО (бывш. УРАО)"
    },
    {
      "id": 348,
      "title": "Финансовый университет при Правительстве РФ (бывш. ФА при Правительстве РФ)"
    },
    {
      "id": 349,
      "title": "Школа-студия им. Вл. И. Немировича-Данченко при МХАТ"
    },
    {
      "id": 350,
      "title": "НОУ ЮА"
    },
    {
      "id": 963,
      "title": "МИТРО"
    },
    {
      "id": 1070,
      "title": "РГСУ"
    },
    {
      "id": 1276,
      "title": "МГОУ (областной)"
    },
    {
      "id": 1736,
      "title": "МИФКиС"
    },
    {
      "id": 1755,
      "title": "МАБиУ"
    },
    {
      "id": 1813,
      "title": "МИР (рекламы)"
    },
    {
      "id": 1859,
      "title": "МосГУ"
    },
    {
      "id": 2172,
      "title": "МФПУ «Синергия» (бывш. МФПА, ММИЭИФП)"
    },
    {
      "id": 2283,
      "title": "МЭПИ"
    },
    {
      "id": 2301,
      "title": "МГГЭУ (бывш. МГГЭИ, МГСГИ)"
    },
    {
      "id": 2396,
      "title": "МИЮ"
    },
    {
      "id": 2528,
      "title": "МВШМ МВД СССР"
    },
    {
      "id": 2529,
      "title": "ИМДТ"
    },
    {
      "id": 3050,
      "title": "РАХИ"
    },
    {
      "id": 3102,
      "title": "МХПИ"
    },
    {
      "id": 3720,
      "title": "ИТиГ"
    },
    {
      "id": 4337,
      "title": "РУК (бывш. МУПК)"
    },
    {
      "id": 4401,
      "title": "МГУУ Правительства Москвы"
    },
    {
      "id": 4719,
      "title": "МГИМ"
    },
    {
      "id": 4720,
      "title": "ИЭАУ"
    },
    {
      "id": 4981,
      "title": "МСЭИ"
    },
    {
      "id": 5234,
      "title": "ИНЭС"
    },
    {
      "id": 5237,
      "title": "НИ ВШУ"
    },
    {
      "id": 5507,
      "title": "МИМЭМО (бывш. МИМЭО)"
    },
    {
      "id": 5627,
      "title": "ММА (бывш. МИЛ)"
    },
    {
      "id": 6099,
      "title": "ВШК"
    },
    {
      "id": 7279,
      "title": "МСПИ (МОСПИ)"
    },
    {
      "id": 7926,
      "title": "ПСТГУ (ПСТБИ)"
    },
    {
      "id": 7927,
      "title": "МТИ (МосТех) (бывш. МТИ «ВТУ»)"
    },
    {
      "id": 7948,
      "title": "НИЕВ"
    },
    {
      "id": 8194,
      "title": "АЭБ МВД РФ (бывш. АНП ФСНП РФ)"
    },
    {
      "id": 8314,
      "title": "ИМЦ"
    },
    {
      "id": 8840,
      "title": "Институт бизнеса и дизайна (бывш. ИнОБО)"
    },
    {
      "id": 9440,
      "title": "Coll&#232;ge universitaire fran&#231;ais de Moscou"
    },
    {
      "id": 10686,
      "title": "БВШД (BHSAD)"
    },
    {
      "id": 11569,
      "title": "ИМСГС"
    },
    {
      "id": 11571,
      "title": "РЭШ"
    },
    {
      "id": 12007,
      "title": "НИД"
    },
    {
      "id": 13981,
      "title": "МГЛИ"
    },
    {
      "id": 15268,
      "title": "СЭИ"
    },
    {
      "id": 15284,
      "title": "МИНРО"
    },
    {
      "id": 16722,
      "title": "УМЛ при МГК КПСС"
    },
    {
      "id": 17954,
      "title": "НИМ"
    },
    {
      "id": 17958,
      "title": "ББИ"
    },
    {
      "id": 18108,
      "title": "ОИТиР"
    },
    {
      "id": 20679,
      "title": "ИГИТМ (бывш. ИАЯ)"
    },
    {
      "id": 20743,
      "title": "МИРТШБ"
    },
    {
      "id": 22399,
      "title": "МосАП при Правительстве Москвы"
    },
    {
      "id": 22779,
      "title": "ВИА им. В. В. Куйбышева"
    },
    {
      "id": 23100,
      "title": "Академия медиаиндустрии (ИПК работников ТВ и РВ)"
    },
    {
      "id": 23105,
      "title": "ИИМ"
    },
    {
      "id": 23108,
      "title": "МНИ"
    },
    {
      "id": 23115,
      "title": "СИЮ"
    },
    {
      "id": 23123,
      "title": "ИОСО РАО"
    },
    {
      "id": 24961,
      "title": "Еврейский Университет"
    },
    {
      "id": 24962,
      "title": "МАМАРМЕН"
    },
    {
      "id": 24963,
      "title": "ИМЛИ им. Горького"
    },
    {
      "id": 24964,
      "title": "МАОК"
    },
    {
      "id": 24966,
      "title": "ИМЭМО РАН"
    },
    {
      "id": 24970,
      "title": "ВА БТВ"
    },
    {
      "id": 31027,
      "title": "ГПИ"
    },
    {
      "id": 31033,
      "title": "ПИУ"
    },
    {
      "id": 31036,
      "title": "АУМП"
    },
    {
      "id": 31037,
      "title": "МПИ ФСБ РФ (бывш. МВИ ФПС РФ)"
    },
    {
      "id": 31039,
      "title": "АСОУ"
    },
    {
      "id": 31048,
      "title": "МВШБ"
    },
    {
      "id": 31050,
      "title": "SSE Russia"
    },
    {
      "id": 31052,
      "title": "ИСНГ (бывш. УСНГ)"
    },
    {
      "id": 31054,
      "title": "ИЭФ «Синергия»"
    },
    {
      "id": 31056,
      "title": "МИАПП (ИАПП)"
    },
    {
      "id": 31292,
      "title": "МВШСЭН"
    },
    {
      "id": 31932,
      "title": "ИИС"
    },
    {
      "id": 32229,
      "title": "АБиП"
    },
    {
      "id": 38993,
      "title": "МИУС"
    },
    {
      "id": 42341,
      "title": "НМУ"
    },
    {
      "id": 42533,
      "title": "МИП (психоанализа)"
    },
    {
      "id": 48033,
      "title": "ИУиИ"
    },
    {
      "id": 50261,
      "title": "МОСЭКИН"
    },
    {
      "id": 55704,
      "title": "МГЮИ"
    },
    {
      "id": 55750,
      "title": "ИЦЧП им. С. С. Алексеева при Президенте РФ (РШЧП)"
    },
    {
      "id": 55753,
      "title": "ИАМТ"
    },
    {
      "id": 56032,
      "title": "УИИТ"
    },
    {
      "id": 56157,
      "title": "ВИППКРК"
    },
    {
      "id": 56158,
      "title": "МИМО"
    },
    {
      "id": 57105,
      "title": "ИРТ (до 2017)"
    },
    {
      "id": 57142,
      "title": "ИПИУ"
    },
    {
      "id": 57194,
      "title": "ИСОМ"
    },
    {
      "id": 57446,
      "title": "СФИ"
    },
    {
      "id": 57522,
      "title": "ВАШГД"
    },
    {
      "id": 57573,
      "title": "ИГУПИТ"
    },
    {
      "id": 57575,
      "title": "ИТЭФ"
    },
    {
      "id": 58452,
      "title": "ЭЭИ"
    },
    {
      "id": 58486,
      "title": "СГЭИ"
    },
    {
      "id": 61970,
      "title": "ИСПЭ"
    },
    {
      "id": 64863,
      "title": "МАГМУ"
    },
    {
      "id": 64914,
      "title": "ИРДПО"
    },
    {
      "id": 64950,
      "title": "ФПИ"
    },
    {
      "id": 65359,
      "title": "ПИ РАО"
    },
    {
      "id": 65507,
      "title": "ПИЮ"
    },
    {
      "id": 65508,
      "title": "ПИП"
    },
    {
      "id": 65532,
      "title": "ИСЭ"
    },
    {
      "id": 65670,
      "title": "МАБ"
    },
    {
      "id": 65746,
      "title": "ИФЭПОЗ"
    },
    {
      "id": 66339,
      "title": "МИКБ (бывш. МАКБ)"
    },
    {
      "id": 66346,
      "title": "МСГИ"
    },
    {
      "id": 66702,
      "title": "ИКТ"
    },
    {
      "id": 66881,
      "title": "МВШЭ ФИ"
    },
    {
      "id": 66900,
      "title": "СИП"
    },
    {
      "id": 67068,
      "title": "ИЭУП"
    },
    {
      "id": 73295,
      "title": "МЭГУ"
    },
    {
      "id": 75860,
      "title": "ИПЭ"
    },
    {
      "id": 77536,
      "title": "ИКМ"
    },
    {
      "id": 78116,
      "title": "ЕУП"
    },
    {
      "id": 79385,
      "title": "ВАГШ ВС РФ"
    },
    {
      "id": 79392,
      "title": "ВУНЦ СВ «ОВА ВС РФ» (бывш. ВА им. Фрунзе)"
    },
    {
      "id": 86846,
      "title": "ИНиСБ"
    },
    {
      "id": 89277,
      "title": "МАРТИТ"
    },
    {
      "id": 90424,
      "title": "ИУП"
    },
    {
      "id": 90764,
      "title": "ИУЭПИ"
    },
    {
      "id": 91133,
      "title": "ВГШ им. Дубнова (бывш. ЕУМ)"
    },
    {
      "id": 91639,
      "title": "НИСД"
    },
    {
      "id": 91877,
      "title": "ВЭГИ"
    },
    {
      "id": 94444,
      "title": "ИЭ РАН"
    },
    {
      "id": 94617,
      "title": "ИЗиСП при Правительстве РФ"
    },
    {
      "id": 94634,
      "title": "ИО РАН"
    },
    {
      "id": 94637,
      "title": "МИАН"
    },
    {
      "id": 94639,
      "title": "ИГП РАН"
    },
    {
      "id": 94911,
      "title": "МИУ (исламский)"
    },
    {
      "id": 95498,
      "title": "СИИЯ"
    },
    {
      "id": 95674,
      "title": "ИОН (бывш. АНО)"
    },
    {
      "id": 95825,
      "title": "ИЕ РАН"
    },
    {
      "id": 97175,
      "title": "НИИ СП РФ"
    },
    {
      "id": 103444,
      "title": "МИОО (бывш. МИПКРО)"
    },
    {
      "id": 105012,
      "title": "ИСК РАН"
    },
    {
      "id": 120900,
      "title": "ГАСиЖКК"
    },
    {
      "id": 141849,
      "title": "ВКСР"
    },
    {
      "id": 141851,
      "title": "ИПУ РАН"
    },
    {
      "id": 142306,
      "title": "МТИ (теологический)"
    },
    {
      "id": 168150,
      "title": "ИТИРШБ"
    },
    {
      "id": 169174,
      "title": "ИСПТ"
    },
    {
      "id": 169315,
      "title": "ЦРГОП и ИТ (бывш. АПК и ППРО)"
    },
    {
      "id": 169716,
      "title": "ГНИИ РНС ФНС РФ"
    },
    {
      "id": 169759,
      "title": "ИСОТ МГТУ им. Н. Э. Баумана (бывш. МИПК МГТУ им. Н. Э. Баумана)"
    },
    {
      "id": 170405,
      "title": "ИРИ РАН"
    },
    {
      "id": 171078,
      "title": "НМХЦ им. Н. И. Пирогова"
    },
    {
      "id": 171108,
      "title": "ВШИИ"
    },
    {
      "id": 171226,
      "title": "МБШ"
    },
    {
      "id": 171368,
      "title": "ИПБ России"
    },
    {
      "id": 171412,
      "title": "ЦЭПЛ РАН"
    },
    {
      "id": 176248,
      "title": "ГИИ"
    },
    {
      "id": 179610,
      "title": "ИС РАН"
    },
    {
      "id": 191771,
      "title": "ИЯз РАН"
    },
    {
      "id": 196205,
      "title": "РИСК (RISC)"
    },
    {
      "id": 196435,
      "title": "ИМЕТ РАН"
    },
    {
      "id": 196456,
      "title": "ЕАОИ"
    },
    {
      "id": 196474,
      "title": "ИСПИ РАН"
    },
    {
      "id": 196536,
      "title": "ИЭПП"
    },
    {
      "id": 233198,
      "title": "ИДНТ"
    },
    {
      "id": 233632,
      "title": "ИЕК"
    },
    {
      "id": 240581,
      "title": "ВШДСИ при РАТИ (ГИТИС)"
    },
    {
      "id": 240592,
      "title": "СДС"
    },
    {
      "id": 240879,
      "title": "ТАЕХ"
    },
    {
      "id": 240939,
      "title": "ВИЭСХ"
    },
    {
      "id": 240952,
      "title": "ИНЭОС РАН"
    },
    {
      "id": 243853,
      "title": "ИЛА РАН"
    },
    {
      "id": 244564,
      "title": "ГИУВ МО РФ"
    },
    {
      "id": 285451,
      "title": "РИК РАН"
    },
    {
      "id": 289794,
      "title": "МИЭЭ"
    },
    {
      "id": 291360,
      "title": "ФИРО"
    },
    {
      "id": 308137,
      "title": "ИПМех РАН"
    },
    {
      "id": 315323,
      "title": "ВНИИВСГЭ"
    },
    {
      "id": 315327,
      "title": "ИХО РАО"
    },
    {
      "id": 343831,
      "title": "ИТТИ"
    },
    {
      "id": 344201,
      "title": "ИОФ РАН"
    },
    {
      "id": 345048,
      "title": "ВСТИСП"
    },
    {
      "id": 345078,
      "title": "ИИП"
    },
    {
      "id": 372549,
      "title": "ИПД МФПА"
    },
    {
      "id": 400368,
      "title": "ВВИ (бывш. ВВФ при МВА им. К. И. Скрябина)"
    },
    {
      "id": 400535,
      "title": "ФИАН им. П. Н. Лебедева"
    },
    {
      "id": 400680,
      "title": "РЗТИ"
    },
    {
      "id": 401247,
      "title": "МИПК РЭУ им. Г. В. Плеханова"
    },
    {
      "id": 401256,
      "title": "ЭПИ"
    },
    {
      "id": 426398,
      "title": "ИХ им. А. В. Вишневского РАМН"
    },
    {
      "id": 427591,
      "title": "СИУС"
    },
    {
      "id": 492684,
      "title": "ВКИЯ МЭРТ"
    },
    {
      "id": 499490,
      "title": "ИП РАН"
    },
    {
      "id": 499840,
      "title": "МУГУ"
    },
    {
      "id": 503847,
      "title": "ИОХ РАН"
    },
    {
      "id": 503857,
      "title": "МИПК РРиСХП"
    },
    {
      "id": 516914,
      "title": "ИНП РАН"
    },
    {
      "id": 516918,
      "title": "ЦЭМИ РАН"
    },
    {
      "id": 518171,
      "title": "ИЭА РАН им. Н. Н. Миклухо-Маклая"
    },
    {
      "id": 522231,
      "title": "МНИОИ им. П. А. Герцена "
    },
    {
      "id": 522240,
      "title": "ИИО РАО"
    },
    {
      "id": 536147,
      "title": "ИПМ им. М. В. Келдыша РАН"
    },
    {
      "id": 536591,
      "title": "ИАф РАН"
    },
    {
      "id": 538281,
      "title": "УП РФ (бывш. АГПРФ)"
    },
    {
      "id": 544114,
      "title": "ИМБП РАН"
    },
    {
      "id": 544118,
      "title": "ИРЭИ"
    },
    {
      "id": 544125,
      "title": "УКУ"
    },
    {
      "id": 544147,
      "title": "ИГ РАН"
    },
    {
      "id": 544197,
      "title": "ИПНГ РАН"
    },
    {
      "id": 544228,
      "title": "ИСЖ"
    },
    {
      "id": 544252,
      "title": "ИВИ РАН"
    },
    {
      "id": 544272,
      "title": "ИТИ им. П. М. Ершова"
    },
    {
      "id": 544311,
      "title": "ИВ РАН"
    },
    {
      "id": 544960,
      "title": "ГЭТИ (бывш. АСЭР, Академия «Континент»)"
    },
    {
      "id": 545006,
      "title": "НИИ РАХ"
    },
    {
      "id": 545036,
      "title": "ИХФ РАН"
    },
    {
      "id": 545252,
      "title": "ИАМ"
    },
    {
      "id": 545308,
      "title": "ПГИ «Со-действие»"
    },
    {
      "id": 545317,
      "title": "ИНТУИТ"
    },
    {
      "id": 548539,
      "title": "ИПИ"
    },
    {
      "id": 549847,
      "title": "ИБХ РАН"
    },
    {
      "id": 549901,
      "title": "МВУ (Венский)"
    },
    {
      "id": 549904,
      "title": "ВЦ РАН"
    },
    {
      "id": 549948,
      "title": "ВНИИФК"
    },
    {
      "id": 553668,
      "title": "AIBEc"
    },
    {
      "id": 555631,
      "title": "ИСИН"
    },
    {
      "id": 555632,
      "title": "ВНШТ"
    },
    {
      "id": 555635,
      "title": "НИИОСП им. М. Н. Герсеванова"
    },
    {
      "id": 555637,
      "title": "ИСл РАН"
    },
    {
      "id": 557147,
      "title": "ИФ РАН"
    },
    {
      "id": 558246,
      "title": "ЕБС"
    },
    {
      "id": 560089,
      "title": "ИПИ РАН"
    },
    {
      "id": 560161,
      "title": "ГОСНИТИ"
    },
    {
      "id": 564921,
      "title": "МИЭМ (бывш. ИНФО-Рутения)"
    },
    {
      "id": 569052,
      "title": "ГИА (GIA)"
    },
    {
      "id": 573614,
      "title": "ИДВ РАН"
    },
    {
      "id": 573617,
      "title": "ИБГ РАН"
    },
    {
      "id": 573626,
      "title": "ИПЭБ"
    },
    {
      "id": 575666,
      "title": "ИНЭУМ им. И. С. Брука"
    },
    {
      "id": 580993,
      "title": "ИФЗ РАН"
    },
    {
      "id": 586220,
      "title": "НИСК"
    },
    {
      "id": 591971,
      "title": "ИСВ РАО (бывш. НИИ ОПВ АПН СССР)"
    },
    {
      "id": 592800,
      "title": "МАН Сан-Марино"
    },
    {
      "id": 593385,
      "title": "ИМАШ РАН им. А. А. Благонравова "
    },
    {
      "id": 619533,
      "title": "МФПИ"
    },
    {
      "id": 628080,
      "title": "ИПиКП"
    },
    {
      "id": 638832,
      "title": "НИИ СПиПРЛ"
    },
    {
      "id": 661816,
      "title": "ИХТ АИИ"
    },
    {
      "id": 681407,
      "title": "ВГКПИ"
    },
    {
      "id": 695970,
      "title": "РБУ"
    },
    {
      "id": 706573,
      "title": "МФ ВШНИ (бывш. ИТПИ)"
    },
    {
      "id": 711335,
      "title": "ИММ РАН"
    },
    {
      "id": 719767,
      "title": "МАФСИ"
    },
    {
      "id": 742455,
      "title": "НИФХИ"
    },
    {
      "id": 747034,
      "title": "ИИЯМС"
    },
    {
      "id": 760978,
      "title": "ИАТУ"
    },
    {
      "id": 771110,
      "title": "АПРИКТ"
    },
    {
      "id": 793475,
      "title": "ИКИ РАН"
    },
    {
      "id": 832418,
      "title": "Кора Москва"
    },
    {
      "id": 832494,
      "title": "ИПКИР"
    },
    {
      "id": 839337,
      "title": "ЦНИИТМАШ"
    },
    {
      "id": 839351,
      "title": "ИНХС РАН"
    },
    {
      "id": 844525,
      "title": "ППДС"
    },
    {
      "id": 878860,
      "title": "НИКФИ"
    },
    {
      "id": 886470,
      "title": "ИЭСО"
    },
    {
      "id": 893239,
      "title": "ИСП РАН"
    },
    {
      "id": 904212,
      "title": "ИОНХ РАН"
    },
    {
      "id": 908718,
      "title": "ИВП РАН"
    },
    {
      "id": 909533,
      "title": "ИСМО РАО "
    },
    {
      "id": 940610,
      "title": "ИВМ РАН"
    },
    {
      "id": 962570,
      "title": "ИФР РАН"
    },
    {
      "id": 964367,
      "title": "ИА РАН "
    },
    {
      "id": 964372,
      "title": "ИПКОН РАН"
    },
    {
      "id": 980913,
      "title": "РИСИ"
    },
    {
      "id": 998799,
      "title": "ИНИОН РАН "
    },
    {
      "id": 1014167,
      "title": "АСМС"
    },
    {
      "id": 1022424,
      "title": "НИЦ КИ"
    },
    {
      "id": 1071778,
      "title": "УМЦ ЖДТ "
    },
    {
      "id": 1072710,
      "title": "ОЦАД"
    },
    {
      "id": 1085645,
      "title": "МШУ «Сколково»"
    },
    {
      "id": 1100770,
      "title": "МТС"
    },
    {
      "id": 1130883,
      "title": "ИОГен РАН"
    },
    {
      "id": 1137499,
      "title": "ФИЦ Биотехнологии РАН"
    },
    {
      "id": 1163131,
      "title": "ВИАПИ им. А. А. Никонова"
    },
    {
      "id": 1163252,
      "title": "ГУ ИМЭИ"
    },
    {
      "id": 1163498,
      "title": "РТИ им. А. Л. Минца"
    },
    {
      "id": 1163667,
      "title": "СОПС РАН "
    },
    {
      "id": 1164190,
      "title": "МИТП РАН"
    },
    {
      "id": 1164229,
      "title": "ВНИИгеосистем"
    },
    {
      "id": 1164314,
      "title": "МАСИ"
    },
    {
      "id": 1164355,
      "title": "ИПТиК "
    },
    {
      "id": 1164387,
      "title": "ВИНИТИ РАН "
    },
    {
      "id": 1164404,
      "title": "РАПС (бывш. ИПК МПС России)"
    },
    {
      "id": 1164418,
      "title": "ИВФ РАО"
    },
    {
      "id": 1164424,
      "title": "ИРЭ им. В. А. Котельникова РАН"
    },
    {
      "id": 1164486,
      "title": "НИИ ФХМ Росздрава"
    },
    {
      "id": 1164556,
      "title": "НИИ ОПП РАМН"
    },
    {
      "id": 1164565,
      "title": "ЦНИИС"
    },
    {
      "id": 1164569,
      "title": "ИПКгосслужбы"
    },
    {
      "id": 1164582,
      "title": "ИФБТ"
    },
    {
      "id": 1164612,
      "title": "ВИГИС"
    },
    {
      "id": 1164620,
      "title": "ПАПО"
    },
    {
      "id": 1164631,
      "title": "ИСОУКиТ"
    },
    {
      "id": 1164635,
      "title": "ВНИИДАД"
    },
    {
      "id": 1164654,
      "title": "ИДПО ДТСЗН (бывш. ИПК ДСЗН)"
    },
    {
      "id": 1164656,
      "title": "ИСП РАО"
    },
    {
      "id": 1164684,
      "title": "ГКНПЦ им. М. В. Хруничева"
    },
    {
      "id": 1166225,
      "title": "АРМО"
    },
    {
      "id": 1166487,
      "title": "МГААИИ С. Андрияки"
    },
    {
      "id": 1166490,
      "title": "ИФХЭ РАН"
    },
    {
      "id": 1166549,
      "title": "МИСБ"
    },
    {
      "id": 1166989,
      "title": "ВНИИНТПИ"
    },
    {
      "id": 1167396,
      "title": "ИСО РАО"
    },
    {
      "id": 1167397,
      "title": "ИМАД «Стрелка»"
    },
    {
      "id": 1167456,
      "title": "ИПГ"
    },
    {
      "id": 1167470,
      "title": "ИИДСВ РАО (бывш. ИППД РАО)"
    },
    {
      "id": 1167612,
      "title": "Университет рабочих корреспондентов им. Ульяновой"
    },
    {
      "id": 1167711,
      "title": "ВНИИЖТ"
    },
    {
      "id": 1167850,
      "title": "МКТА"
    },
    {
      "id": 1167855,
      "title": "ИЭУСП"
    },
    {
      "id": 1167880,
      "title": "БОН"
    },
    {
      "id": 1167907,
      "title": "АПО ФНКЦ ФМБА России (бывш. ИПК ФМБА России)"
    },
    {
      "id": 1167918,
      "title": "САМБ"
    },
    {
      "id": 1167938,
      "title": "ИСА РАН"
    },
    {
      "id": 1168112,
      "title": "ВНИИМС"
    },
    {
      "id": 1168193,
      "title": "ЦНИИПСК им. Н. П. Мельникова"
    },
    {
      "id": 1168226,
      "title": "ИНО"
    },
    {
      "id": 1168233,
      "title": "ИРЯ РАН"
    },
    {
      "id": 1168247,
      "title": "НИИ вирусологии им. Д. И. Ивановского РАМН"
    },
    {
      "id": 1168292,
      "title": "ИБХФ РАН"
    },
    {
      "id": 1168295,
      "title": "ОТИ"
    },
    {
      "id": 1168320,
      "title": "ЭЮИ"
    },
    {
      "id": 1168493,
      "title": "НИИ ТСС"
    },
    {
      "id": 1168657,
      "title": "ГосНИИгенетика"
    },
    {
      "id": 1168737,
      "title": "ИМБ РАН"
    },
    {
      "id": 1168792,
      "title": "ИЕГО"
    },
    {
      "id": 1168809,
      "title": "ИРЕА"
    },
    {
      "id": 1168823,
      "title": "ИДМ"
    },
    {
      "id": 1168870,
      "title": "МИСАО"
    },
    {
      "id": 1168877,
      "title": "НМИЦ ССХ (ННПЦССХ) им. А. Н. Бакулева Минздрава России (бывш. НЦССХ РАМН)"
    },
    {
      "id": 1169018,
      "title": "ВНИИПВТИ"
    },
    {
      "id": 1169110,
      "title": "ВДА"
    },
    {
      "id": 1169219,
      "title": "ИУ (МскУниверситет)"
    },
    {
      "id": 1169222,
      "title": "РАКО АПК"
    },
    {
      "id": 1169341,
      "title": "ЮИ (МскУниверситет)"
    },
    {
      "id": 1169532,
      "title": "МГИМТ"
    },
    {
      "id": 1169732,
      "title": "ПУ «Первое сентября»"
    },
    {
      "id": 1170100,
      "title": "Touro College - Lander Institute Moscow"
    },
    {
      "id": 1170419,
      "title": "ИУБ"
    },
    {
      "id": 1170445,
      "title": "АМИР"
    },
    {
      "id": 1170461,
      "title": "НИИРПО"
    },
    {
      "id": 1170640,
      "title": "ИТ (МскУниверситет)"
    },
    {
      "id": 1170641,
      "title": "ИЭ (Мск университет)"
    },
    {
      "id": 1170642,
      "title": "МИП (МскУниверситет)"
    },
    {
      "id": 1170724,
      "title": "Открытый институт"
    },
    {
      "id": 1170727,
      "title": "ЦНИИчермет им. И. П. Бардина"
    },
    {
      "id": 1170729,
      "title": "ИПСУ"
    },
    {
      "id": 1170751,
      "title": "ГЕОХИ РАН"
    },
    {
      "id": 1170810,
      "title": "25 ГосНИИ химмотологии МО РФ"
    },
    {
      "id": 1170844,
      "title": "ВИЭВ"
    },
    {
      "id": 1170846,
      "title": "МОНИКИ им. М. Ф. Владимирского"
    },
    {
      "id": 1170852,
      "title": "ИТИП РАО"
    },
    {
      "id": 1170902,
      "title": "НМИЦ эндокринологии"
    },
    {
      "id": 1171063,
      "title": "НАМИ"
    },
    {
      "id": 1171338,
      "title": "Академия ГРУ"
    },
    {
      "id": 1171340,
      "title": "НИИ СП им. Н. В. Склифосовского"
    },
    {
      "id": 1171610,
      "title": "ИАБиА"
    },
    {
      "id": 1171753,
      "title": "МАРШ"
    },
    {
      "id": 1171761,
      "title": "ИНАСАН"
    },
    {
      "id": 1171798,
      "title": "ГИНФО"
    },
    {
      "id": 1171802,
      "title": "ИМЭИИ"
    },
    {
      "id": 1171829,
      "title": "МИКТиР"
    },
    {
      "id": 1171834,
      "title": "Сколтех"
    },
    {
      "id": 1171842,
      "title": "МИНЭКБИК"
    },
    {
      "id": 1171879,
      "title": "СГЛА"
    },
    {
      "id": 1171900,
      "title": "ИППИ РАН"
    },
    {
      "id": 1171932,
      "title": "MBS"
    },
    {
      "id": 1171985,
      "title": "ЦНИИП градостроительства РААСН"
    },
    {
      "id": 1171988,
      "title": "ESMOD Moscou"
    },
    {
      "id": 1171999,
      "title": "ИМГ РАН"
    },
    {
      "id": 1172007,
      "title": "ВФЭУ"
    },
    {
      "id": 1172201,
      "title": "АВР (бывш. КИ КГБ)"
    },
    {
      "id": 1172230,
      "title": "ОИВТ РАН"
    },
    {
      "id": 1172247,
      "title": "МСЕХ"
    },
    {
      "id": 1172249,
      "title": "НИИ урологии МЗ РФ"
    },
    {
      "id": 1172371,
      "title": "МНИИП"
    },
    {
      "id": 1172727,
      "title": "CBS"
    },
    {
      "id": 1172807,
      "title": "ВНИИГиМ им. А. Н. Костякова"
    },
    {
      "id": 1172818,
      "title": "ИНСТЭП"
    },
    {
      "id": 1172847,
      "title": "ЦИТО им. Н. Н. Приорова"
    },
    {
      "id": 1172849,
      "title": "ВНИИнефть им. А. П. Крылова"
    },
    {
      "id": 1172883,
      "title": "ВШСИ Константина Райкина"
    },
    {
      "id": 1172885,
      "title": "Медицинский университет «Реавиз» (бывш. ММИ «Реавиз»)"
    },
    {
      "id": 1172936,
      "title": "НМИЦ ПМ (бывш. ГНИЦПМ)"
    },
    {
      "id": 1172963,
      "title": "ИГЭ РАН"
    },
    {
      "id": 1172965,
      "title": "НМИЦПН им. В. П. Сербского Минздрава России"
    },
    {
      "id": 1172970,
      "title": "НИИОР им. В. А. Неговского РАМН"
    },
    {
      "id": 1172973,
      "title": "ИФА РАН"
    },
    {
      "id": 1173020,
      "title": "ВКИЯ МИД РФ"
    },
    {
      "id": 1173070,
      "title": "ВНИИА Россельхозакадемии"
    },
    {
      "id": 1173071,
      "title": "ИВНД РАН"
    },
    {
      "id": 1173237,
      "title": "Межрегиональный институт гуманистической психотерапии (МИГп)"
    },
    {
      "id": 1173238,
      "title": "УЦПиДПО РГБ"
    },
    {
      "id": 1173261,
      "title": "РНЦХ им. акад. Б. В. Петровского РАМН"
    },
    {
      "id": 1173288,
      "title": "ИСЭПН РАН"
    },
    {
      "id": 1173612,
      "title": "MBA School"
    },
    {
      "id": 1173695,
      "title": "МЭГИ Махон ХаМеШ"
    },
    {
      "id": 1173732,
      "title": "РНЦРР"
    },
    {
      "id": 1174428,
      "title": "ИТИ"
    },
    {
      "id": 1174792,
      "title": "Московская академия СК РФ"
    },
    {
      "id": 1174810,
      "title": "НМИЦ АГИП (бывш. НЦАГИП) им. В. И. Кулакова Минздрава России"
    },
    {
      "id": 1174885,
      "title": "ИКП РАО"
    },
    {
      "id": 1174991,
      "title": "РНЦ МРиК Минздрава РФ"
    },
    {
      "id": 1175237,
      "title": "МИГМУ"
    },
    {
      "id": 1175386,
      "title": "ГАИн"
    },
    {
      "id": 1175448,
      "title": "ПИН РАН"
    },
    {
      "id": 1175466,
      "title": "ИИЕТ РАН"
    },
    {
      "id": 1175494,
      "title": "МОИ"
    },
    {
      "id": 1175549,
      "title": "ВНИОПТУСХ"
    },
    {
      "id": 1175559,
      "title": "НИИСФ РААСН"
    },
    {
      "id": 1175602,
      "title": "ФМБЦ им. А. И. Бурназяна ФМБА России"
    },
    {
      "id": 1175992,
      "title": "НИИ КГ"
    },
    {
      "id": 1176334,
      "title": "НЦПЗ"
    },
    {
      "id": 1176337,
      "title": "МИВМ"
    },
    {
      "id": 1176338,
      "title": "УПП"
    },
    {
      "id": 1176404,
      "title": "РПИК"
    },
    {
      "id": 1176454,
      "title": "ИСиО РАО"
    },
    {
      "id": 1176575,
      "title": "МАО"
    },
    {
      "id": 1176835,
      "title": "Pericles"
    },
    {
      "id": 1176912,
      "title": "ИПРИМ РАН"
    },
    {
      "id": 1177210,
      "title": "Газпром ВНИИГАЗ"
    },
    {
      "id": 1177226,
      "title": "ВШИКиШБ В. Девятова"
    },
    {
      "id": 1177229,
      "title": "ИФП РАН"
    },
    {
      "id": 1177238,
      "title": "МИНИТ"
    },
    {
      "id": 1177268,
      "title": "МИР (режиссуры)"
    },
    {
      "id": 1187386,
      "title": "НМИЦ ТИО (бывш. ФНЦТИО) им. ак. В. И. Шумакова Минздрава России"
    },
    {
      "id": 1187491,
      "title": "МБС ЕХБ"
    },
    {
      "id": 1187514,
      "title": "Институт иммунологии"
    },
    {
      "id": 1187585,
      "title": "РТУ МИРЭА"
    },
    {
      "id": 1187597,
      "title": "ИФТИ"
    },
    {
      "id": 1187756,
      "title": "ИПЭЭ РАН"
    },
    {
      "id": 1187757,
      "title": "Концерн «Вега»"
    },
    {
      "id": 1187872,
      "title": "ВИАМ"
    },
    {
      "id": 1187877,
      "title": "ЦГМА УД Президента РФ"
    },
    {
      "id": 1187912,
      "title": "Московский политехнический университет"
    },
    {
      "id": 1187921,
      "title": "АУП (бывш. ОИ-ВПШ)"
    },
    {
      "id": 1187999,
      "title": "МГИ (РГИ)"
    },
    {
      "id": 1188076,
      "title": "Институт Гайдара"
    },
    {
      "id": 1188153,
      "title": "ЦНИИСК им. В.А. Кучеренко"
    },
    {
      "id": 1188278,
      "title": "МГАЛП (бывш. МТИЛП)"
    },
    {
      "id": 1188286,
      "title": "МИТУ-МАСИ"
    },
    {
      "id": 1188309,
      "title": "СИБТУ"
    },
    {
      "id": 1188345,
      "title": "МГНЦ"
    },
    {
      "id": 1188376,
      "title": "ФИЦ питания и биотехнологии"
    },
    {
      "id": 1188436,
      "title": "ИФВД РАН"
    },
    {
      "id": 1188498,
      "title": "ЦНИИ эпидемиологии Роспотребнадзора"
    },
    {
      "id": 1188502,
      "title": "МИУ (инновационный)"
    },
    {
      "id": 1188631,
      "title": "НИИМЧ"
    },
    {
      "id": 1188673,
      "title": "НМИЦ (бывш. ННПЦЗД) Минздрава РФ"
    },
    {
      "id": 1188728,
      "title": "Международный институт Монтессори-педагогики (МИМП)"
    },
    {
      "id": 1188828,
      "title": "МУФО"
    },
    {
      "id": 1188929,
      "title": "НАИ"
    },
    {
      "id": 1189011,
      "title": "Институт ИТКОР"
    },
    {
      "id": 1189043,
      "title": "ВНИИ Труда Минтруда РФ"
    },
    {
      "id": 1189049,
      "title": "Национальный НИИ общественного здоровья им. Н. А. Семашко"
    },
    {
      "id": 1189108,
      "title": "M&MU Business School"
    },
    {
      "id": 1189109,
      "title": "НМИЦ нейрохирургии им. ак. Н. Н. Бурденко (бывш. ННПЦН)"
    },
    {
      "id": 1189127,
      "title": "НМИЦ онкологии им. Н. Н. Блохина"
    },
    {
      "id": 1189154,
      "title": "ГНЦК им. А. Н. Рыжих Минздрава России"
    },
    {
      "id": 1189222,
      "title": "ВЗФЭИ"
    },
    {
      "id": 1189286,
      "title": "НПО «Орион»"
    },
    {
      "id": 1189313,
      "title": "НИИСИ РАН"
    },
    {
      "id": 1189320,
      "title": "ИТМиВТ"
    },
    {
      "id": 1189338,
      "title": "ЦНИИОИЗ"
    },
    {
      "id": 1189355,
      "title": "МНТК «Микрохирургия глаза»"
    },
    {
      "id": 1189416,
      "title": "Духовная Академия «Благодать»"
    },
    {
      "id": 1189458,
      "title": "НМИЦ ДГОИ им. Дмитрия Рогачева"
    },
    {
      "id": 1189550,
      "title": "МАСПК"
    },
    {
      "id": 1189560,
      "title": "НОЦ НИИСУ"
    },
    {
      "id": 1189629,
      "title": "ВНИИ (ЦНИИ) «Центр»"
    },
    {
      "id": 1189668,
      "title": "ФИЦ ИУ РАН"
    },
    {
      "id": 1189690,
      "title": "ЦНИИПромзданий"
    },
    {
      "id": 1189741,
      "title": "Центральный многопрофильный институт"
    },
    {
      "id": 1189866,
      "title": "НИИ «Инновационная педагогика»"
    },
    {
      "id": 1189893,
      "title": "ИПОПБ"
    },
    {
      "id": 1189954,
      "title": "НИИНА им. Г. Ф. Гаузе"
    },
    {
      "id": 1190186,
      "title": "ВМедА им. С. М. Кирова (филиал)"
    },
    {
      "id": 1190202,
      "title": "ФНЦ пищевых систем им. В. М. Горбатова (бывш. ВНИИМП)"
    },
    {
      "id": 1190290,
      "title": "ММШП"
    },
    {
      "id": 1190294,
      "title": "МО МОНИИАГ"
    },
    {
      "id": 1190300,
      "title": "НМИЦ гематологии"
    },
    {
      "id": 1190369,
      "title": "ПКБ № 1 им. Н. А. Алексеева"
    },
    {
      "id": 1190658,
      "title": "ВШП (Институт)"
    },
    {
      "id": 1190748,
      "title": "СНТА"
    },
    {
      "id": 1190749,
      "title": "АМО"
    },
    {
      "id": 1190823,
      "title": "ЮИ МВД РФ"
    },
    {
      "id": 1190842,
      "title": "МИУ им. Орджоникидзе"
    },
    {
      "id": 1191019,
      "title": "МГЗПИ"
    },
    {
      "id": 1191047,
      "title": "ИСПМ им. Н. С. Ениколопова РАН"
    },
    {
      "id": 1191083,
      "title": "ИППиП (до 2016)"
    },
    {
      "id": 1191093,
      "title": "РКС"
    },
    {
      "id": 1191140,
      "title": "РАГС при Президенте РФ"
    },
    {
      "id": 1191144,
      "title": "МКНЦ"
    },
    {
      "id": 1191157,
      "title": "МИИ"
    },
    {
      "id": 1191158,
      "title": "МНПЦ наркологии ДЗМ"
    },
    {
      "id": 1191159,
      "title": "Морозовская ДГКБ ДЗМ"
    },
    {
      "id": 1191160,
      "title": "НИИ НДХиТ"
    },
    {
      "id": 1191161,
      "title": "Московский Центр дерматовенерологии и косметологии"
    },
    {
      "id": 1191162,
      "title": "НЦН"
    },
    {
      "id": 1191163,
      "title": "ЦНИИСиЧЛХ"
    },
    {
      "id": 1191164,
      "title": "РЦСМЭ"
    },
    {
      "id": 1191165,
      "title": "НИИГБ"
    },
    {
      "id": 1191166,
      "title": "НИИ МТ"
    },
    {
      "id": 1191167,
      "title": "НИИР им. В. А. Насоновой"
    },
    {
      "id": 1191168,
      "title": "ЦНИИТ"
    },
    {
      "id": 1191169,
      "title": "НПЦ им. З. П. Соловьева"
    },
    {
      "id": 1191170,
      "title": "НПЦ ДП ДЗМ"
    },
    {
      "id": 1191171,
      "title": "НИИ фармакологии им. В. В. Закусова"
    },
    {
      "id": 1191172,
      "title": "ФНИСЦ РАН"
    },
    {
      "id": 1191173,
      "title": "ФНИЦ «Кристаллография и фотоника» РАН"
    },
    {
      "id": 1191174,
      "title": "ГНЦДК"
    },
    {
      "id": 1191175,
      "title": "ФНКЦ РР"
    },
    {
      "id": 1191176,
      "title": "ВИЛАР"
    },
    {
      "id": 1191177,
      "title": "ВНИИСБ"
    },
    {
      "id": 1191178,
      "title": "ФНАЦ ВИМ"
    },
    {
      "id": 1191181,
      "title": "ГосНИИОХТ"
    },
    {
      "id": 1191182,
      "title": "ЦНИИП Минстроя России"
    },
    {
      "id": 1191183,
      "title": "НТЦ УП РАН"
    },
    {
      "id": 1191184,
      "title": "Гидрометцентр России"
    },
    {
      "id": 1191185,
      "title": "ИБР РАН"
    },
    {
      "id": 1191186,
      "title": "ИГЕМ РАН"
    },
    {
      "id": 1191187,
      "title": "ИСВЧПЭ РАН"
    },
    {
      "id": 1191188,
      "title": "ИТПЭ РАН"
    },
    {
      "id": 1191189,
      "title": "ИБМХ"
    },
    {
      "id": 1191190,
      "title": "ЦТП ФХФ РАН"
    },
    {
      "id": 1191191,
      "title": "ИСРО РАО"
    },
    {
      "id": 1191192,
      "title": "НИКИО им. Л. И. Свержевского"
    },
    {
      "id": 1191193,
      "title": "НМИЦ радиологии"
    },
    {
      "id": 1191194,
      "title": "ИКТИ РАН"
    },
    {
      "id": 1191195,
      "title": "ГБС РАН"
    },
    {
      "id": 1191196,
      "title": "ИЛАН РАН"
    },
    {
      "id": 1191197,
      "title": "ИБРАЭ РАН"
    },
    {
      "id": 1191198,
      "title": "ИДГ РАН"
    },
    {
      "id": 1191209,
      "title": "МЮИ"
    },
    {
      "id": 1191210,
      "title": "ИЯИ РАН"
    },
    {
      "id": 1191426,
      "title": "НИИВС им. И. И. Мечникова"
    },
    {
      "id": 1191588,
      "title": "ВВИА им. Н. Е. Жуковского"
    },
    {
      "id": 1191712,
      "title": "ВЗПИ"
    },
    {
      "id": 1191744,
      "title": "ГОИН"
    },
    {
      "id": 1191749,
      "title": "НМИЦ ГБ им. Гельмгольца"
    },
    {
      "id": 1191753,
      "title": "МИИУЭП"
    },
    {
      "id": 1191800,
      "title": "Moscow Music School"
    },
    {
      "id": 1191827,
      "title": "ОГЭУ"
    },
    {
      "id": 1191845,
      "title": "ИОТиГН"
    }
  ]
}
